<?xml version="1.0" encoding="utf-8"?>
<!-- Generator: Adobe Illustrator 18.1.1, SVG Export Plug-In . SVG Version: 6.00 Build 0)  -->
<svg version="1.1" id="Ebene_1" xmlns="http://www.w3.org/2000/svg" xmlns:xlink="http://www.w3.org/1999/xlink" x="0px" y="0px"
	 viewBox="0 0 150 150" enable-background="new 0 0 150 150" xml:space="preserve">
<path fill="#1A171B" d="M111.7,47.1V1.2H1.5v147h147v-101H111.7z M111.7,56.3h9.2v27.6h-9.2V56.3z M38.2,120.6H19.9v-18.4h18.4
	V120.6z M38.2,93.1H19.9V74.7h18.4V93.1z M38.2,65.5H19.9V47.1h18.4V65.5z M38.2,37.9H19.9V19.6h18.4V37.9z M65.8,139H47.4v-9.2
	h18.4V139z M65.8,120.6H47.4v-18.4h18.4V120.6z M65.8,93.1H47.4V74.7h18.4V93.1z M65.8,65.5H47.4V47.1h18.4V65.5z M65.8,37.9H47.4
	V19.6h18.4V37.9z M93.3,120.6H75v-18.4h18.4V120.6z M93.3,93.1H75V74.7h18.4V93.1z M93.3,65.5H75V47.1h18.4V65.5z M93.3,37.9H75
	V19.6h18.4V37.9z M111.7,93.1h9.2v27.6h-9.2V93.1z M130.1,139h-9.2v-9.2h9.2V139z M139.3,120.6h-9.2V93.1h9.2V120.6z M139.3,83.9
	h-9.2V56.3h9.2V83.9z"/>
</svg>
